<?xml version="1.0" encoding="UTF-8" standalone="no"?>
<svg
   xmlns:dc="http://purl.org/dc/elements/1.1/"
   xmlns:cc="http://creativecommons.org/ns#"
   xmlns:rdf="http://www.w3.org/1999/02/22-rdf-syntax-ns#"
   xmlns:svg="http://www.w3.org/2000/svg"
   xmlns="http://www.w3.org/2000/svg"
   xmlns:sodipodi="http://sodipodi.sourceforge.net/DTD/sodipodi-0.dtd"
   xmlns:inkscape="http://www.inkscape.org/namespaces/inkscape"
   width="54.22464mm"
   height="55.902561mm"
   viewBox="0 0 54.22464 55.902561"
   version="1.1"
   id="svg881"
   inkscape:export-filename="/Users/johngodlee/Desktop/trst.png"
   inkscape:export-xdpi="399.83859"
   inkscape:export-ydpi="399.83859"
   inkscape:version="1.0.1 (c497b03c, 2020-09-10)"
   sodipodi:docname="logo.svg">
  <defs
     id="defs875" />
  <sodipodi:namedview
     id="base"
     pagecolor="#ffffff"
     bordercolor="#666666"
     borderopacity="1.0"
     inkscape:pageopacity="0.0"
     inkscape:pageshadow="2"
     inkscape:zoom="1.3682721"
     inkscape:cx="100.42668"
     inkscape:cy="73.975321"
     inkscape:document-units="mm"
     inkscape:current-layer="layer1"
     inkscape:document-rotation="0"
     showgrid="false"
     fit-margin-top="0"
     fit-margin-left="0"
     fit-margin-right="0"
     fit-margin-bottom="0"
     inkscape:window-width="1252"
     inkscape:window-height="755"
     inkscape:window-x="0"
     inkscape:window-y="23"
     inkscape:window-maximized="0" />
  <metadata
     id="metadata878">
    <rdf:RDF>
      <cc:Work
         rdf:about="">
        <dc:format>image/svg+xml</dc:format>
        <dc:type
           rdf:resource="http://purl.org/dc/dcmitype/StillImage" />
        <dc:title></dc:title>
      </cc:Work>
    </rdf:RDF>
  </metadata>
  <g
     inkscape:label="Layer 1"
     inkscape:groupmode="layer"
     id="layer1"
     transform="translate(-100.06561,-102.09681)">
    <path
       style="display:inline;fill:#3f9648;fill-opacity:1;stroke:#3f9648;stroke-width:0.529167;stroke-miterlimit:4;stroke-dasharray:none;stroke-opacity:1"
       d="m 118.5942,144.8731 c -2.18641,-0.16641 -3.9371,-0.46784 -4.96687,-0.85519 -3.8476,-1.44727 -7.03243,-4.7333 -8.26604,-8.52868 -0.47738,-1.46874 -0.62019,-2.41502 -0.6175,-4.09159 0.007,-4.43844 2.85089,-9.30243 6.7963,-11.62443 1.73121,-1.01887 1.8242,-1.14679 3.35734,-4.61807 0.44827,-1.01495 1.07723,-2.26761 1.3977,-2.78369 1.95009,-3.14043 6.61003,-5.48537 10.93274,-5.50149 3.46462,-0.0129 6.89046,1.3354 9.16031,3.60525 1.46408,1.46408 2.36142,2.90996 3.5455,5.71281 0.94027,2.2257 1.2965,2.64328 3.70475,4.34275 3.2316,2.2805 4.72403,4.37958 5.54242,7.79533 0.38314,1.59916 0.45073,3.19784 0.20352,4.81409 -0.26125,1.70802 -1.02654,3.98819 -1.7989,5.35977 -0.80021,1.42106 -2.71872,3.35974 -4.1436,4.18718 -3.08996,1.79438 -5.6315,2.32201 -11.18922,2.32292 l -2.75212,2.6e-4 0.0928,-1.06381 c 0.18715,-2.14549 0.39067,-2.46749 3.87624,-6.13318 5.91101,-6.21644 6.30177,-6.67308 6.16766,-7.20742 -0.30536,-1.21665 -2.21665,-2.57778 -3.32279,-2.36633 -0.23861,0.0456 -1.29159,0.98323 -3.17296,2.82534 -1.54871,1.51639 -2.86696,2.72549 -2.92943,2.68688 -0.1754,-0.10841 -0.27201,-2.01872 -0.4172,-8.24962 -0.0735,-3.1536 -0.19092,-6.52985 -0.26098,-7.50279 -0.14732,-2.04602 -0.25722,-2.25376 -1.36655,-2.58319 -0.8896,-0.26419 -1.38713,-0.24607 -2.26529,0.0825 -1.2154,0.45474 -1.16757,0.15905 -1.24449,7.6934 l -0.0659,6.4554 -0.59315,-0.52104 c -0.32625,-0.28657 -1.30495,-1.17591 -2.17491,-1.97631 -2.44059,-2.24545 -3.10682,-2.83252 -3.85905,-3.40055 l -0.69556,-0.52525 -0.43867,0.31509 c -0.61117,0.43901 -1.52676,1.52967 -1.81291,2.15955 -0.13197,0.29049 -0.24125,0.7377 -0.24284,0.9938 -0.003,0.43523 0.22262,0.68923 3.44951,3.88845 5.04248,4.99926 5.90518,5.89077 6.05451,6.25676 0.2286,0.56027 0.37243,3.86568 0.24859,5.7125 -0.12744,1.90033 -0.17871,2.13035 -0.50592,2.26977 -0.34534,0.14715 -3.75134,0.18019 -5.42704,0.0526 z"
       id="path1101"
       sodipodi:nodetypes="csscsssssssssssccssssssssssscssscsscsssscc" />
    <path
       id="path338"
       style="display:inline;fill:#0f1610;fill-opacity:1;stroke-width:0.264583"
       d="m 127.14933,102.09684 c -1.50685,-0.002 -3.05544,0.0949 -3.46387,0.2899 -0.34951,0.16688 -1.40901,0.56755 -2.3549,0.89039 -4.68613,1.59941 -8.88064,5.61344 -10.62312,10.16682 -0.59502,1.55489 -1.15779,2.14819 -4.72271,4.97696 -2.01198,1.5965 -3.92331,4.55046 -5.02708,7.77006 -0.78714,2.296 -0.89594,2.93804 -0.89194,5.26118 0.004,2.17196 0.13647,3.04863 0.74156,4.8948 1.75181,5.3449 4.60463,8.78624 9.20254,11.10216 2.75917,1.38976 5.09747,1.50721 10.39471,2.07223 l 4.23334,0.45165 0.33848,3.10885 c 0,0 0.10406,2.27611 0.62631,4.91753 l 4.02302,-2.51716 c -0.22694,-1.40372 -0.31265,-2.46651 -0.31265,-2.46651 -0.0692,-2.73082 -0.0147,-3.43894 0.26459,-3.43494 3.24887,0.047 9.70599,-0.34132 11.03705,-0.66404 4.48716,-1.08789 9.16023,-4.80018 11.32644,-8.9979 1.08026,-2.09333 1.73813,-4.04621 2.2288,-6.61458 0.25742,-1.34736 0.0723,-5.07592 -0.27595,-5.55625 -0.10551,-0.14552 -0.34525,-0.80037 -0.53278,-1.45521 -0.90433,-3.15808 -3.31871,-6.63114 -5.96915,-8.58604 -2.34064,-1.72641 -3.23002,-2.75732 -3.93929,-4.56716 -1.50277,-3.8346 -4.56306,-7.05632 -8.49612,-8.94365 -1.30968,-0.62847 -2.79797,-1.22592 -3.30729,-1.32756 -0.50932,-0.10165 -1.08811,-0.31534 -1.28571,-0.47491 -0.24232,-0.19567 -1.70743,-0.29509 -3.21428,-0.29662 z m 0.11834,4.64726 c 0.86474,-0.002 1.72005,0.11566 2.83962,0.35295 4.7164,0.99961 7.8911,3.8649 9.81749,8.86199 0.91112,2.36347 1.314,2.84569 3.76876,4.51032 3.16936,2.14922 4.75122,4.35487 5.5485,7.73648 0.53389,2.26444 0.49633,4.23471 -0.12661,6.67039 -1.01234,3.95822 -3.21498,6.76323 -6.63112,8.44445 -2.68692,1.32234 -4.94409,1.74736 -9.31364,1.75286 l -3.63802,0.005 v -1.21702 c 0,-0.66923 0.2005,-1.6515 0.44597,-2.18281 0.24547,-0.53132 2.50765,-3.05648 5.02708,-5.61155 2.94115,-2.98275 4.58112,-4.84041 4.58112,-5.18986 0,-1.24521 -2.24381,-2.95359 -3.35897,-2.55747 -0.26278,0.0934 -1.67212,1.4019 -3.13211,2.90784 -1.45998,1.50593 -2.7812,2.73833 -2.93574,2.73833 -0.18935,0 -0.33029,-2.79695 -0.43253,-8.57622 -0.0939,-5.30908 -0.26022,-8.77821 -0.43615,-9.10694 -0.42542,-0.7949 -1.93061,-1.21262 -3.04478,-0.84491 -1.6043,0.52947 -1.59475,0.47877 -1.50895,7.70754 0.043,3.62293 -0.008,6.5872 -0.11472,6.5872 -0.10629,0 -1.7118,-1.42875 -3.56774,-3.175 -1.85594,-1.74625 -3.55317,-3.175 -3.77135,-3.175 -0.48178,0 -1.97771,1.65624 -2.32802,2.57762 -0.13948,0.36685 -0.18326,0.85958 -0.0971,1.09502 0.0861,0.23544 2.15484,2.3334 4.59714,4.66173 2.44229,2.32834 4.60725,4.51899 4.81107,4.86844 0.55195,0.9463 0.53026,7.88208 -0.0258,8.23361 -0.77172,0.48783 -7.99998,0.14202 -9.93738,-0.47543 -7.22662,-2.30312 -11.35302,-9.94854 -9.03664,-16.74317 1.16198,-3.40843 3.70451,-6.61139 6.29884,-7.93491 1.48151,-0.75582 1.9201,-1.34057 3.02979,-4.03903 0.54969,-1.33672 1.3356,-2.92614 1.74666,-3.53157 1.61538,-2.37921 4.66778,-4.27235 8.03104,-4.98161 1.15593,-0.24377 2.02964,-0.36651 2.89439,-0.36897 z"
       sodipodi:nodetypes="cssssscsscccccccsssscsssssccssssssccsssscsssssssssscssssssssscc" />
  </g>
</svg>
